[
  {
    "id": "pull",
    "execute-command": "/var/scripts/pull.sh",
    "command-working-directory": "/root/gitrepo",
    "pass-arguments-to-command":
    [
      {
        "source": "payload",
        "name": "actor.username"
      }
    ],
    "trigger-rule":
    {
      "match":
      {
        "type": "ip-whitelist",
        "ip-range": "104.192.143.0/24" #bitbucket pipelines
      }
    }
  }
]
